{
    "openapi": "3.0.0",
    "info": {
        "title": "Khedutbolo Swagger API ",
        "description": "L5 Swagger OpenApi description",
        "contact": {
            "email": "shineinfosoft22@gmail.com"
        },
        "license": {
            "name": "Apache 2.0",
            "url": "http://www.apache.org/licenses/LICENSE-2.0.html"
        },
        "version": "1.0.0"
    },
    "servers": [
        {
            "url": "https://localhost:8000/api",
            "description": "Khedutbolo Swagger Server"
        }
    ],
    "paths": {
        "/crop": {
            "get": {
                "tags": [
                    "Post"
                ],
                "summary": "Get list of crop",
                "operationId": "crop",
                "responses": {
                    "200": {
                        "description": "successful crop"
                    },
                    "400": {
                        "description": "Bad request"
                    }
                },
                "security": [
                    {
                        "crop": []
                    }
                ]
            }
        },
        "/productDetail": {
            "get": {
                "tags": [
                    "Post"
                ],
                "summary": "Get list of projects",
                "operationId": "productDetail",
                "responses": {
                    "200": {
                        "description": "successful productDetail"
                    },
                    "400": {
                        "description": "Bad request"
                    }
                },
                "security": [
                    {
                        "productDetail": []
                    }
                ]
            }
        }
    },
    "components": {
        "securitySchemes": {
            "12345678": {
                "type": "apiKey",
                "name": "khediutbolo",
                "in": "header"
            }
        }
    },
    "tags": [
        {
            "name": "project",
            "description": "Everything about your Projects"
        }
    ]
}